<?xml version="1.0" encoding="UTF-8" standalone="no"?>
<!-- Created with Inkscape (http://www.inkscape.org/) -->

<svg
   width="210mm"
   height="297mm"
   viewBox="0 0 210 297"
   version="1.1"
   id="svg5"
   inkscape:version="1.1 (c68e22c387, 2021-05-23)"
   sodipodi:docname="tux-linux-color.svg"
   xmlns:inkscape="http://www.inkscape.org/namespaces/inkscape"
   xmlns:sodipodi="http://sodipodi.sourceforge.net/DTD/sodipodi-0.dtd"
   xmlns="http://www.w3.org/2000/svg"
   xmlns:svg="http://www.w3.org/2000/svg">
  <sodipodi:namedview
     id="namedview7"
     pagecolor="#505050"
     bordercolor="#eeeeee"
     borderopacity="1"
     inkscape:pageshadow="0"
     inkscape:pageopacity="0"
     inkscape:pagecheckerboard="0"
     inkscape:document-units="mm"
     showgrid="true"
     objecttolerance="10"
     inkscape:snap-grids="true"
     inkscape:snap-bbox="false"
     inkscape:snap-global="true"
     inkscape:snap-midpoints="false"
     inkscape:object-paths="false"
     inkscape:snap-intersection-paths="false"
     inkscape:snap-smooth-nodes="true"
     inkscape:snap-object-midpoints="false"
     inkscape:snap-center="true"
     inkscape:snap-text-baseline="false"
     inkscape:snap-page="false"
     inkscape:snap-others="true"
     inkscape:object-nodes="false"
     inkscape:zoom="0.6412669"
     inkscape:cx="309.5435"
     inkscape:cy="581.66108"
     inkscape:window-width="1920"
     inkscape:window-height="1044"
     inkscape:window-x="0"
     inkscape:window-y="0"
     inkscape:window-maximized="1"
     inkscape:current-layer="layer1">
    <inkscape:grid
       type="xygrid"
       id="grid1882"
       spacingx="3.96875"
       spacingy="3.96875"
       visible="true"
       originx="105"
       originy="148.5"
       color="#00ffed"
       opacity="0.21176471"
       empcolor="#b100ff"
       empopacity="0.55686275" />
    <sodipodi:guide
       position="0,297"
       orientation="0,793.70079"
       id="guide2054" />
    <sodipodi:guide
       position="210,297"
       orientation="1122.5197,0"
       id="guide2056" />
    <sodipodi:guide
       position="210,0"
       orientation="0,-793.70079"
       id="guide2058" />
    <sodipodi:guide
       position="0,0"
       orientation="-1122.5197,0"
       id="guide2060" />
  </sodipodi:namedview>
  <defs
     id="defs2">
    <rect
       x="171.85039"
       y="861.25984"
       width="450"
       height="75"
       id="rect5145" />
    <inkscape:path-effect
       effect="fillet_chamfer"
       id="path-effect4864"
       is_visible="true"
       lpeversion="1"
       satellites_param="F,0,0,1,0,0,0,1 @ F,0,0,1,0,0,0,1 @ F,0,0,1,0,10.968879,0,1 @ F,0,0,1,0,0,0,1 @ F,0,0,1,0,0,0,1 @ F,0,0,1,0,0,0,1 @ F,0,0,1,0,0,0,1 @ F,0,0,1,0,0,0,1 @ F,0,0,1,0,0,0,1 @ F,0,0,1,0,9.1708324,0,1 @ F,0,0,1,0,0,0,1"
       unit="px"
       method="auto"
       mode="F"
       radius="0"
       chamfer_steps="1"
       flexible="false"
       use_knot_distance="true"
       apply_no_radius="true"
       apply_with_radius="true"
       only_selected="false"
       hide_knots="false" />
  </defs>
  <g
     inkscape:label="layer-1"
     inkscape:groupmode="layer"
     id="layer1">
    <path
       id="path1800"
       style="fill:#171717;fill-opacity:1;stroke:none;stroke-width:0.264583"
       d="m 104.99974,54.140364 c -50.269048,1.63e-4 -91.020121,40.751238 -91.020281,91.020286 0.01086,20.16564 6.713654,39.64676 18.889952,55.46655 3.692741,4.79771 5.653611,3.59284 4.36905,-2.32487 -2.104324,-9.69418 -3.216193,-20.38593 -3.220949,-31.28152 0,-39.45384 14.21496,-71.437497 31.75,-71.437497 16.169586,9.25e-4 29.755975,27.343707 31.552596,63.499997 h 16.349902 c 1.79317,-36.08799 15.33352,-63.407453 31.4725,-63.499997 17.53504,0 31.75,31.983657 31.75,71.437497 -0.0133,11.11457 -1.62957,22.50744 -4.03985,32.58615 -1.17782,4.92512 0.44315,5.88085 3.53586,1.87242 12.35491,-16.01306 19.63188,-36.14821 19.63202,-56.31873 -1.6e-4,-50.26925 -40.75155,-91.02041 -91.0208,-91.020286 z"
       inkscape:path-effect="#path-effect4864"
       inkscape:original-d="m 104.99974,54.140364 c -50.269048,1.63e-4 -91.020121,40.751238 -91.020281,91.020286 0.01284,23.84174 9.379813,46.72664 26.087296,63.73512 -3.925671,-12.17708 -6.042677,-26.83173 -6.049243,-41.87496 0,-39.45384 14.21496,-71.437497 31.75,-71.437497 16.169586,9.25e-4 29.755975,27.343707 31.552596,63.499997 h 16.349902 c 1.79317,-36.08799 15.33352,-63.407453 31.4725,-63.499997 17.53504,0 31.75,31.983657 31.75,71.437497 -0.0174,14.51887 -2.77003,29.51261 -6.45482,41.43159 15.93641,-16.89223 25.58269,-40.06855 25.58285,-63.29175 -1.6e-4,-50.26925 -40.75155,-91.02041 -91.0208,-91.020286 z"
       sodipodi:nodetypes="cccccccccccc" />
    <ellipse
       style="fill:#171717;fill-opacity:1;stroke:none;stroke-width:0.0650268"
       id="ellipse3761"
       cx="144.6875"
       cy="134.60938"
       rx="8.3106318"
       ry="13.890621" />
    <ellipse
       style="fill:#171717;fill-opacity:1;stroke:none;stroke-width:0.0650268"
       id="ellipse3965"
       cx="65.3125"
       cy="134.60938"
       rx="8.3106318"
       ry="13.890621" />
    <ellipse
       style="fill:#ffcd48;fill-opacity:1;stroke:none;stroke-width:0.0750865"
       id="ellipse3965-2"
       cx="160.77939"
       cy="-105"
       rx="8.3106318"
       ry="18.520834"
       transform="rotate(90)" />
    <g
       aria-label="Linux"
       transform="matrix(1.0386786,0,0,1.0386655,-122.93748,-699.9381)"
       id="text5143"
       style="font-size:40px;line-height:1.25;font-family:Urbanist;-inkscape-font-specification:'Urbanist, Normal';white-space:pre;shape-inside:url(#rect5145)">
      <path
         d="m 174.24961,897.92643 v -28 h 2.8 v 25.2 h 12.86 v 2.8 z"
         id="path915"
         style="fill:#171717;fill-opacity:1" />
      <path
         d="m 194.30958,877.92643 h 2.8 v 20 h -2.8 z m 1.42,-3.9 q -0.68,0 -1.16,-0.44 -0.46,-0.46 -0.46,-1.14 0,-0.68 0.46,-1.12 0.48,-0.46 1.16,-0.46 0.66,0 1.12,0.46 0.48,0.44 0.48,1.12 0,0.68 -0.48,1.14 -0.46,0.44 -1.12,0.44 z"
         id="path917"
         style="fill:#171717;fill-opacity:1" />
      <path
         d="m 220.20949,887.16643 v 10.76 h -2.8 v -10.68 q 0,-1.98 -0.84,-3.6 -0.82,-1.62 -2.24,-2.58 -1.4,-0.98 -3.16,-0.98 -1.74,0 -3.12,0.98 -1.38,0.96 -2.18,2.58 -0.8,1.62 -0.8,3.6 v 10.68 h -2.8 v -20 h 2.8 v 3.34 q 1.12,-1.84 2.78,-2.86 1.66,-1.04 3.68,-1.04 2.56,0 4.5,1.36 1.94,1.34 3.04,3.58 1.12,2.22 1.14,4.86 z"
         id="path919"
         style="fill:#171717;fill-opacity:1" />
      <path
         d="m 224.60941,888.64643 v -10.72 h 2.8 v 10.64 q 0,1.96 0.82,3.6 0.84,1.62 2.26,2.6 1.42,0.96 3.18,0.96 1.74,0 3.12,-0.96 1.38,-0.98 2.16,-2.6 0.8,-1.64 0.8,-3.6 v -10.64 h 2.8 v 20 h -2.8 v -3.36 q -1.12,1.82 -2.78,2.86 -1.64,1.04 -3.66,1.04 -2.56,0 -4.52,-1.34 -1.94,-1.36 -3.04,-3.6 -1.1,-2.24 -1.14,-4.88 z"
         id="path921"
         style="fill:#ffcd48;fill-opacity:1" />
      <path
         d="m 246.54936,897.92643 7.32,-10.04 -7.3,-10.02 h 3.46 l 5.58,7.62 5.56,-7.62 h 3.44 l -7.28,10.02 7.32,10.04 h -3.46 l -5.58,-7.68 -5.6,7.68 z"
         id="path923"
         style="fill:#171717;fill-opacity:1" />
    </g>
  </g>
</svg>
